-------------------------------------------------------------------------------
Test set: com.sg.ayesberger.dvdlibrary.dao.DVDLibraryDaoTest
-------------------------------------------------------------------------------
Tests run: 15, Failures: 0, Errors: 0, Skipped: 0, Time elapsed: 0.198 sec
