<?xml version="1.0" encoding="UTF-8" ?>
<testsuite tests="15" failures="0" name="com.sg.ayesberger.dvdlibrary.dao.DVDLibraryDaoTest" time="0.198" errors="0" skipped="0">
  <properties>
    <property name="java.runtime.name" value="Java(TM) SE Runtime Environment"/>
    <property name="sun.boot.library.path" value="/usr/lib/jvm/java-8-oracle/jre/lib/amd64"/>
    <property name="java.vm.version" value="25.111-b14"/>
    <property name="java.vm.vendor" value="Oracle Corporation"/>
    <property name="java.vendor.url" value="http://java.oracle.com/"/>
    <property name="path.separator" value=":"/>
    <property name="guice.disable.misplaced.annotation.check" value="true"/>
    <property name="java.vm.name" value="Java HotSpot(TM) 64-Bit Server VM"/>
    <property name="file.encoding.pkg" value="sun.io"/>
    <property name="user.country" value="US"/>
    <property name="sun.java.launcher" value="SUN_STANDARD"/>
    <property name="sun.os.patch.level" value="unknown"/>
    <property name="test" value="com.sg.ayesberger.dvdlibrary.dao.DVDLibraryDaoTest"/>
    <property name="java.vm.specification.name" value="Java Virtual Machine Specification"/>
    <property name="user.dir" value="/home/softwareguild/Repos/anna-yesberger-individual-work/Section03/Lesson06/DVDLibrary"/>
    <property name="java.runtime.version" value="1.8.0_111-b14"/>
    <property name="java.awt.graphicsenv" value="sun.awt.X11GraphicsEnvironment"/>
    <property name="java.endorsed.dirs" value="/usr/lib/jvm/java-8-oracle/jre/lib/endorsed"/>
    <property name="os.arch" value="amd64"/>
    <property name="java.io.tmpdir" value="/tmp"/>
    <property name="line.separator" value="
"/>
    <property name="java.vm.specification.vendor" value="Oracle Corporation"/>
    <property name="os.name" value="Linux"/>
    <property name="maven.ext.class.path" value="/home/softwareguild/netbeans-8.1/java/maven-nblib/netbeans-eventspy.jar"/>
    <property name="classworlds.conf" value="/home/softwareguild/netbeans-8.1/java/maven/bin/m2.conf"/>
    <property name="sun.jnu.encoding" value="UTF-8"/>
    <property name="java.library.path" value="/usr/lib/jvm/java-8-oracle/jre/lib/amd64:/usr/lib/jvm/java-8-oracle/jre/lib/i386::/usr/java/packages/lib/amd64:/usr/lib64:/lib64:/lib:/usr/lib"/>
    <property name="java.specification.name" value="Java Platform API Specification"/>
    <property name="java.class.version" value="52.0"/>
    <property name="sun.management.compiler" value="HotSpot 64-Bit Tiered Compilers"/>
    <property name="os.version" value="4.4.0-47-generic"/>
    <property name="user.home" value="/home/softwareguild"/>
    <property name="user.timezone" value="America/Chicago"/>
    <property name="java.awt.printerjob" value="sun.print.PSPrinterJob"/>
    <property name="java.specification.version" value="1.8"/>
    <property name="file.encoding" value="UTF-8"/>
    <property name="user.name" value="softwareguild"/>
    <property name="java.class.path" value="/home/softwareguild/netbeans-8.1/java/maven/boot/plexus-classworlds-2.4.jar"/>
    <property name="java.vm.specification.version" value="1.8"/>
    <property name="sun.arch.data.model" value="64"/>
    <property name="java.home" value="/usr/lib/jvm/java-8-oracle/jre"/>
    <property name="sun.java.command" value="org.codehaus.plexus.classworlds.launcher.Launcher -Dtest=com.sg.ayesberger.dvdlibrary.dao.DVDLibraryDaoTest -Dmaven.ext.class.path=/home/softwareguild/netbeans-8.1/java/maven-nblib/netbeans-eventspy.jar surefire:test"/>
    <property name="java.specification.vendor" value="Oracle Corporation"/>
    <property name="user.language" value="en"/>
    <property name="awt.toolkit" value="sun.awt.X11.XToolkit"/>
    <property name="java.vm.info" value="mixed mode"/>
    <property name="java.version" value="1.8.0_111"/>
    <property name="java.ext.dirs" value="/usr/lib/jvm/java-8-oracle/jre/lib/ext:/usr/java/packages/lib/ext"/>
    <property name="securerandom.source" value="file:/dev/./urandom"/>
    <property name="sun.boot.class.path" value="/usr/lib/jvm/java-8-oracle/jre/lib/resources.jar:/usr/lib/jvm/java-8-oracle/jre/lib/rt.jar:/usr/lib/jvm/java-8-oracle/jre/lib/sunrsasign.jar:/usr/lib/jvm/java-8-oracle/jre/lib/jsse.jar:/usr/lib/jvm/java-8-oracle/jre/lib/jce.jar:/usr/lib/jvm/java-8-oracle/jre/lib/charsets.jar:/usr/lib/jvm/java-8-oracle/jre/lib/jfr.jar:/usr/lib/jvm/java-8-oracle/jre/classes"/>
    <property name="java.vendor" value="Oracle Corporation"/>
    <property name="maven.home" value="/home/softwareguild/netbeans-8.1/java/maven"/>
    <property name="file.separator" value="/"/>
    <property name="java.vendor.url.bug" value="http://bugreport.sun.com/bugreport/"/>
    <property name="sun.cpu.endian" value="little"/>
    <property name="sun.io.unicode.encoding" value="UnicodeLittle"/>
    <property name="sun.desktop" value="gnome"/>
    <property name="sun.cpu.isalist" value=""/>
  </properties>
  <testcase classname="com.sg.ayesberger.dvdlibrary.dao.DVDLibraryDaoTest" name="testFindAverageAge" time="0.016"/>
  <testcase classname="com.sg.ayesberger.dvdlibrary.dao.DVDLibraryDaoTest" name="testEditDVDNotChangingFields" time="0.066"/>
  <testcase classname="com.sg.ayesberger.dvdlibrary.dao.DVDLibraryDaoTest" name="testFindAllMoviesByDirector" time="0.01"/>
  <testcase classname="com.sg.ayesberger.dvdlibrary.dao.DVDLibraryDaoTest" name="testFindAllMoviesByMPAARating" time="0.003"/>
  <testcase classname="com.sg.ayesberger.dvdlibrary.dao.DVDLibraryDaoTest" name="testSearchDVDsExpectDVD" time="0.002"/>
  <testcase classname="com.sg.ayesberger.dvdlibrary.dao.DVDLibraryDaoTest" name="testSearchDVDsExpectedNull" time="0.002"/>
  <testcase classname="com.sg.ayesberger.dvdlibrary.dao.DVDLibraryDaoTest" name="testGetAllDVDs" time="0.004"/>
  <testcase classname="com.sg.ayesberger.dvdlibrary.dao.DVDLibraryDaoTest" name="testFindOldestDVD" time="0"/>
  <testcase classname="com.sg.ayesberger.dvdlibrary.dao.DVDLibraryDaoTest" name="testAddGetDVD" time="0.001"/>
  <testcase classname="com.sg.ayesberger.dvdlibrary.dao.DVDLibraryDaoTest" name="testFindAllMoviesByStudio" time="0.002"/>
  <testcase classname="com.sg.ayesberger.dvdlibrary.dao.DVDLibraryDaoTest" name="testFindMoviesReleasedByNYears" time="0.019"/>
  <testcase classname="com.sg.ayesberger.dvdlibrary.dao.DVDLibraryDaoTest" name="findAverageNumberOfNotes" time="0.001"/>
  <testcase classname="com.sg.ayesberger.dvdlibrary.dao.DVDLibraryDaoTest" name="testEditDVDChangingFields" time="0.001"/>
  <testcase classname="com.sg.ayesberger.dvdlibrary.dao.DVDLibraryDaoTest" name="testRemoveDVD" time="0.002"/>
  <testcase classname="com.sg.ayesberger.dvdlibrary.dao.DVDLibraryDaoTest" name="testFindNewestDVD" time="0.001"/>
</testsuite>